<?xml version="1.0" encoding="UTF-8" standalone="no"?>
<!-- Created with Inkscape (http://www.inkscape.org/) -->

<svg
   xmlns:dc="http://purl.org/dc/elements/1.1/"
   xmlns:cc="http://creativecommons.org/ns#"
   xmlns:rdf="http://www.w3.org/1999/02/22-rdf-syntax-ns#"
   xmlns:svg="http://www.w3.org/2000/svg"
   xmlns="http://www.w3.org/2000/svg"
   xmlns:xlink="http://www.w3.org/1999/xlink"
   xmlns:sodipodi="http://sodipodi.sourceforge.net/DTD/sodipodi-0.dtd"
   xmlns:inkscape="http://www.inkscape.org/namespaces/inkscape"
   width="210mm"
   height="297mm"
   viewBox="0 0 210 297"
   version="1.1"
   id="svg8"
   inkscape:version="0.92.2 (unknown)"
   sodipodi:docname="emulation_errorvscost.svg">
  <defs
     id="defs2">
    <marker
       inkscape:stockid="DotL"
       orient="auto"
       refY="0.0"
       refX="0.0"
       id="DotL"
       style="overflow:visible"
       inkscape:isstock="true">
      <path
         id="path4548"
         d="M -2.5,-1.0 C -2.5,1.7600000 -4.7400000,4.0 -7.5,4.0 C -10.260000,4.0 -12.5,1.7600000 -12.5,-1.0 C -12.5,-3.7600000 -10.260000,-6.0 -7.5,-6.0 C -4.7400000,-6.0 -2.5,-3.7600000 -2.5,-1.0 z "
         style="fill-rule:evenodd;stroke:#0000c4;stroke-width:1pt;stroke-opacity:1;fill:#0000c4;fill-opacity:1"
         transform="scale(0.8) translate(7.4, 1)" />
    </marker>
    <marker
       inkscape:isstock="true"
       style="overflow:visible;"
       id="marker4815"
       refX="0.0"
       refY="0.0"
       orient="auto"
       inkscape:stockid="Arrow1Mend">
      <path
         transform="scale(0.4) rotate(180) translate(10,0)"
         style="fill-rule:evenodd;stroke:#000000;stroke-width:1pt;stroke-opacity:1;fill:#000000;fill-opacity:1"
         d="M 0.0,0.0 L 5.0,-5.0 L -12.5,0.0 L 5.0,5.0 L 0.0,0.0 z "
         id="path4813" />
    </marker>
    <marker
       inkscape:stockid="Arrow1Mend"
       orient="auto"
       refY="0.0"
       refX="0.0"
       id="Arrow1Mend"
       style="overflow:visible;"
       inkscape:isstock="true"
       inkscape:collect="always">
      <path
         id="path4496"
         d="M 0.0,0.0 L 5.0,-5.0 L -12.5,0.0 L 5.0,5.0 L 0.0,0.0 z "
         style="fill-rule:evenodd;stroke:#000000;stroke-width:1pt;stroke-opacity:1;fill:#000000;fill-opacity:1"
         transform="scale(0.4) rotate(180) translate(10,0)" />
    </marker>
    <filter
       inkscape:collect="always"
       style="color-interpolation-filters:sRGB"
       id="filter5699"
       x="-0.18787826"
       width="1.3757565"
       y="-0.034014037"
       height="1.0680281">
      <feGaussianBlur
         inkscape:collect="always"
         stdDeviation="1.8464819"
         id="feGaussianBlur5701" />
    </filter>
    <filter
       inkscape:collect="always"
       style="color-interpolation-filters:sRGB"
       id="filter5711"
       x="-0.053331278"
       width="1.1066626"
       y="-0.038031024"
       height="1.076062">
      <feGaussianBlur
         inkscape:collect="always"
         stdDeviation="2.0645475"
         id="feGaussianBlur5713" />
    </filter>
  </defs>
  <sodipodi:namedview
     id="base"
     pagecolor="#ffffff"
     bordercolor="#666666"
     borderopacity="1.0"
     inkscape:pageopacity="0.0"
     inkscape:pageshadow="2"
     inkscape:zoom="0.57575436"
     inkscape:cx="195.58648"
     inkscape:cy="699.55808"
     inkscape:document-units="mm"
     inkscape:current-layer="layer1"
     showgrid="false"
     showguides="true"
     inkscape:guide-bbox="true"
     inkscape:window-width="1366"
     inkscape:window-height="744"
     inkscape:window-x="0"
     inkscape:window-y="1074"
     inkscape:window-maximized="1" />
  <metadata
     id="metadata5">
    <rdf:RDF>
      <cc:Work
         rdf:about="">
        <dc:format>image/svg+xml</dc:format>
        <dc:type
           rdf:resource="http://purl.org/dc/dcmitype/StillImage" />
        <dc:title></dc:title>
      </cc:Work>
    </rdf:RDF>
  </metadata>
  <g
     inkscape:label="Layer 1"
     inkscape:groupmode="layer"
     id="layer1">
    <g
       id="g4758"
       transform="translate(37.041668)"
       inkscape:export-xdpi="96"
       inkscape:export-ydpi="96">
      <path
         inkscape:export-ydpi="96"
         inkscape:export-xdpi="96"
         inkscape:connector-curvature="0"
         id="path5717"
         d="m 98.258033,125.48295 0,74.13109"
         style="fill:none;stroke:#800000;stroke-width:0.5291667;stroke-linecap:butt;stroke-linejoin:miter;stroke-miterlimit:4;stroke-dasharray:1.5875, 1.5875;stroke-dashoffset:0;stroke-opacity:1"
         inkscape:transform-center-y="-84.16083"
         sodipodi:nodetypes="cc" />
      <text
         inkscape:export-ydpi="96"
         inkscape:export-xdpi="96"
         xml:space="preserve"
         style="font-style:normal;font-variant:normal;font-weight:normal;font-stretch:normal;font-size:4.23333311px;line-height:0.75;font-family:'Roboto Slab';-inkscape-font-specification:'Roboto Slab';font-variant-ligatures:normal;font-variant-caps:normal;font-variant-numeric:normal;font-feature-settings:normal;text-align:start;letter-spacing:0px;word-spacing:0px;writing-mode:lr-tb;text-anchor:start;fill:#800000;fill-opacity:1;stroke:none;stroke-width:0.1802675"
         x="82.330322"
         y="203.38809"
         id="text5634-2"><tspan
           sodipodi:role="line"
           x="82.330322"
           y="203.38809"
           style="font-style:normal;font-variant:normal;font-weight:bold;font-stretch:normal;font-size:4.23333311px;line-height:1;font-family:'Roboto Slab';-inkscape-font-specification:'Roboto Slab Bold';fill:#800000;fill-opacity:1;stroke-width:0.1802675"
           id="tspan5630-3">Computational</tspan><tspan
           sodipodi:role="line"
           x="82.330322"
           y="207.62143"
           style="font-style:normal;font-variant:normal;font-weight:bold;font-stretch:normal;font-size:4.23333311px;line-height:1;font-family:'Roboto Slab';-inkscape-font-specification:'Roboto Slab Bold';fill:#800000;fill-opacity:1;stroke-width:0.1802675"
           id="tspan5632-75">budget</tspan></text>
    </g>
    <g
       id="g4736"
       transform="translate(31.403824,-1.0423621)"
       inkscape:export-xdpi="96"
       inkscape:export-ydpi="96">
      <g
         inkscape:export-ydpi="96"
         inkscape:export-xdpi="96"
         id="g5526"
         transform="translate(-17.242394,1.2603587)">
        <rect
           y="186.5842"
           x="33.213783"
           height="8.2717543"
           width="42.507641"
           id="rect5520"
           style="opacity:1;fill:#dde9af;fill-opacity:1;stroke:none;stroke-width:0.32574818;stroke-miterlimit:4;stroke-dasharray:none;stroke-dashoffset:0;stroke-opacity:1;paint-order:stroke fill markers" />
        <text
           xml:space="preserve"
           style="font-style:normal;font-variant:normal;font-weight:normal;font-stretch:normal;font-size:7.21069956px;line-height:0.75;font-family:'Roboto Slab';-inkscape-font-specification:'Roboto Slab';font-variant-ligatures:normal;font-variant-caps:normal;font-variant-numeric:normal;font-feature-settings:normal;text-align:start;letter-spacing:0px;word-spacing:0px;writing-mode:lr-tb;text-anchor:start;fill:#445016;fill-opacity:1;stroke:none;stroke-width:0.1802675"
           x="34.253162"
           y="192.38135"
           id="text5524"><tspan
             sodipodi:role="line"
             x="34.253162"
             y="192.38135"
             style="font-style:normal;font-variant:normal;font-weight:bold;font-stretch:normal;font-size:5.64444447px;line-height:0.75;font-family:'Roboto Slab';-inkscape-font-specification:'Roboto Slab Bold';fill:#445016;fill-opacity:1;stroke-width:0.1802675"
             id="tspan5522">Ideal simulator</tspan></text>
      </g>
      <path
         inkscape:connection-end="#use4995"
         inkscape:connection-start="#g5526"
         inkscape:connector-curvature="0"
         inkscape:connector-type="polyline"
         id="path4727"
         d="M 41.317059,187.84456 51.5084,177.54356"
         style="fill:none;fill-rule:evenodd;stroke:#445016;stroke-width:0.26458332px;stroke-linecap:butt;stroke-linejoin:miter;stroke-opacity:1"
         sodipodi:nodetypes="cc" />
    </g>
    <g
       id="g4743"
       transform="translate(37.041668)"
       inkscape:export-xdpi="96"
       inkscape:export-ydpi="96">
      <g
         inkscape:export-ydpi="96"
         inkscape:export-xdpi="96"
         transform="translate(40.344855,-1.014258)"
         id="g5487-9">
        <rect
           style="opacity:1;fill:#ff8080;fill-opacity:1;stroke:none;stroke-width:0.35116833;stroke-miterlimit:4;stroke-dasharray:none;stroke-dashoffset:0;stroke-opacity:1;paint-order:stroke fill markers"
           id="rect5406-6-3"
           width="49.400772"
           height="8.2717543"
           x="33.456226"
           y="186.5842" />
        <text
           id="text5400-7-6"
           y="192.38135"
           x="34.253162"
           style="font-style:normal;font-variant:normal;font-weight:normal;font-stretch:normal;font-size:7.21069956px;line-height:0.75;font-family:'Roboto Slab';-inkscape-font-specification:'Roboto Slab';font-variant-ligatures:normal;font-variant-caps:normal;font-variant-numeric:normal;font-feature-settings:normal;text-align:start;letter-spacing:0px;word-spacing:0px;writing-mode:lr-tb;text-anchor:start;fill:#800000;fill-opacity:1;stroke:none;stroke-width:0.1802675"
           xml:space="preserve"><tspan
             id="tspan5477-0"
             style="font-style:normal;font-variant:normal;font-weight:bold;font-stretch:normal;font-size:5.64444447px;line-height:0.75;font-family:'Roboto Slab';-inkscape-font-specification:'Roboto Slab Bold';fill:#800000;fill-opacity:1;stroke-width:0.1802675"
             y="192.38135"
             x="34.253162"
             sodipodi:role="line">Current simulator</tspan></text>
      </g>
      <path
         inkscape:connection-end="#use4997"
         inkscape:connection-start="#g5487-9"
         inkscape:connector-curvature="0"
         inkscape:connector-type="polyline"
         id="path4729"
         d="m 96.767795,185.56994 1.388647,-9.06875"
         style="fill:none;fill-rule:evenodd;stroke:#800000;stroke-width:0.26458332px;stroke-linecap:butt;stroke-linejoin:miter;stroke-opacity:1"
         sodipodi:nodetypes="cc" />
    </g>
    <g
       id="g4725"
       style="stroke:#0000c4;stroke-opacity:1"
       inkscape:export-xdpi="96"
       inkscape:export-ydpi="96">
      <path
         inkscape:connection-start="#g5423"
         inkscape:connector-curvature="0"
         inkscape:connector-type="polyline"
         id="path4623"
         d="M 120.61221,69.697841 32.86648,46.215082"
         style="fill:none;fill-rule:evenodd;stroke:#0000c4;stroke-width:0.26458332px;stroke-linecap:butt;stroke-linejoin:miter;stroke-opacity:1" />
      <path
         inkscape:connection-end="#use5035"
         inkscape:connection-start="#g5423"
         inkscape:connector-curvature="0"
         inkscape:connector-type="polyline"
         id="path4625"
         d="M 120.61221,75.854003 48.794567,77.435917"
         style="fill:none;fill-rule:evenodd;stroke:#0000c4;stroke-width:0.26458332px;stroke-linecap:butt;stroke-linejoin:miter;stroke-opacity:1" />
      <path
         inkscape:connection-end="#use5023"
         inkscape:connection-start="#g5423"
         inkscape:connector-curvature="0"
         inkscape:connector-type="polyline"
         id="path4627"
         d="M 121.78811,86.299971 68.115807,115.4756"
         style="fill:none;fill-rule:evenodd;stroke:#0000c4;stroke-width:0.26458332px;stroke-linecap:butt;stroke-linejoin:miter;stroke-opacity:1" />
      <path
         inkscape:connection-end="#use5027"
         inkscape:connection-start="#g5423"
         inkscape:connector-curvature="0"
         inkscape:connector-type="polyline"
         id="path4629"
         d="M 131.94085,86.299971 85.624026,137.23177"
         style="fill:none;fill-rule:evenodd;stroke:#0000c4;stroke-width:0.26458332px;stroke-linecap:butt;stroke-linejoin:miter;stroke-opacity:1" />
      <path
         inkscape:connection-end="#use5029"
         inkscape:connection-start="#g5423"
         inkscape:connector-curvature="0"
         inkscape:connector-type="polyline"
         id="path4631"
         d="M 136.39012,86.299971 103.93333,150.99008"
         style="fill:none;fill-rule:evenodd;stroke:#0000c4;stroke-width:0.26458332px;stroke-linecap:butt;stroke-linejoin:miter;stroke-opacity:1" />
      <path
         inkscape:connection-end="#use5031"
         inkscape:connection-start="#g5423"
         inkscape:connector-curvature="0"
         inkscape:connector-type="polyline"
         id="path4633"
         d="M 139.9265,86.299971 127.00513,159.01103"
         style="fill:none;fill-rule:evenodd;stroke:#0000c4;stroke-width:0.26458332px;stroke-linecap:butt;stroke-linejoin:miter;stroke-opacity:1" />
      <path
         inkscape:connection-end="#use5049"
         inkscape:connection-start="#g5423"
         inkscape:connector-curvature="0"
         inkscape:connector-type="polyline"
         id="path4635"
         d="m 142.91366,86.299971 7.21793,75.196079"
         style="fill:none;fill-rule:evenodd;stroke:#0000c4;stroke-width:0.26458332px;stroke-linecap:butt;stroke-linejoin:miter;stroke-opacity:1" />
      <path
         inkscape:connection-end="#use5051"
         inkscape:connection-start="#g5423"
         inkscape:connector-curvature="0"
         inkscape:connector-type="polyline"
         id="path4637"
         d="M 146.2775,86.299971 177.32835,163.1208"
         style="fill:none;fill-rule:evenodd;stroke:#0000c4;stroke-width:0.26458332px;stroke-linecap:butt;stroke-linejoin:miter;stroke-opacity:1" />
    </g>
    <circle
       r="2.1323423"
       cy="6.9173608"
       cx="157.72121"
       id="circle4987"
       style="fill:#aeaeff;fill-opacity:1;stroke:#0000c4;stroke-width:0.7353152;stroke-miterlimit:4;stroke-dasharray:none;stroke-opacity:1;paint-order:stroke fill markers"
       inkscape:tile-cx="179.38749"
       inkscape:tile-cy="30.564582"
       inkscape:tile-w="7.196799"
       inkscape:tile-h="7.196799"
       inkscape:tile-x0="175.78909"
       inkscape:tile-y0="26.966183" />
    <circle
       r="3.0692329"
       cy="7.023551"
       cx="169.61888"
       id="circle4993"
       style="fill:#ff8080;fill-opacity:1;stroke:#800000;stroke-width:1.05833328;stroke-miterlimit:4;stroke-dasharray:none;stroke-opacity:1;paint-order:stroke fill markers" />
    <circle
       style="fill:#dde9af;fill-opacity:1;stroke:#445016;stroke-width:1.05833328;stroke-miterlimit:4;stroke-dasharray:none;stroke-opacity:1;paint-order:stroke fill markers"
       id="path4985"
       cx="147.33109"
       cy="7.0025573"
       r="3.0692329" />
    <path
       style="fill:none;stroke:#0000c4;stroke-width:0.5291667;stroke-linecap:butt;stroke-linejoin:miter;stroke-miterlimit:4;stroke-dasharray:1.5875, 1.5875;stroke-dashoffset:0;stroke-opacity:1"
       d="M 184.18144,163.1208 H 18.883003"
       id="path5715"
       inkscape:connector-curvature="0"
       sodipodi:nodetypes="cc"
       inkscape:export-xdpi="96"
       inkscape:export-ydpi="96" />
    <path
       style="opacity:0.4;fill:none;stroke:#800000;stroke-width:2.64583325;stroke-linecap:round;stroke-linejoin:round;stroke-miterlimit:4;stroke-dasharray:none;stroke-opacity:1;filter:url(#filter5711)"
       d="M 32.866481,46.215082 135.19811,176.50119"
       id="path5596"
       inkscape:connector-curvature="0"
       sodipodi:nodetypes="cc"
       inkscape:export-xdpi="96"
       inkscape:export-ydpi="96" />
    <path
       sodipodi:nodetypes="cc"
       inkscape:connector-curvature="0"
       id="path5594"
       d="M 32.866481,46.215082 82.774433,176.17624"
       style="opacity:0.41000001;fill:none;stroke:#445016;stroke-width:2.64599991;stroke-linecap:round;stroke-linejoin:round;stroke-miterlimit:4;stroke-dasharray:none;stroke-opacity:1;filter:url(#filter5699)"
       inkscape:export-xdpi="96"
       inkscape:export-ydpi="96" />
    <path
       inkscape:transform-center-y="0.26458333"
       inkscape:transform-center-x="-83.380246"
       inkscape:connector-curvature="0"
       id="path4811"
       d="M 18.202646,176.50119 H 191.69375"
       style="fill:none;stroke:#000000;stroke-width:0.5291667;stroke-linecap:butt;stroke-linejoin:miter;stroke-miterlimit:4;stroke-dasharray:none;stroke-opacity:1;marker-end:url(#Arrow1Mend)"
       inkscape:export-xdpi="96"
       inkscape:export-ydpi="96" />
    <path
       style="fill:none;stroke:#00a300;stroke-width:0.5291667;stroke-linecap:butt;stroke-linejoin:miter;stroke-miterlimit:4;stroke-dasharray:1.5875, 1.5875;stroke-dashoffset:0;stroke-opacity:1"
       d="M 184.18144,125.75209 H 20.547154"
       id="path5059"
       inkscape:connector-curvature="0"
       sodipodi:nodetypes="cc"
       inkscape:export-xdpi="96"
       inkscape:export-ydpi="96" />
    <path
       style="fill:none;stroke:#000000;stroke-width:0.5291667;stroke-linecap:butt;stroke-linejoin:miter;stroke-miterlimit:4;stroke-dasharray:none;stroke-opacity:1;marker-end:url(#marker4815)"
       d="M 21.83252,179.6019 V 38.280405"
       id="path4485"
       inkscape:connector-curvature="0"
       inkscape:transform-center-x="-0.264583"
       inkscape:transform-center-y="-83.380245"
       sodipodi:nodetypes="cc"
       inkscape:export-xdpi="96"
       inkscape:export-ydpi="96" />
    <use
       x="0"
       y="0"
       xlink:href="#path4985"
       id="use4995"
       transform="translate(-64.418861,169.49864)"
       width="100%"
       height="100%"
       inkscape:export-xdpi="96"
       inkscape:export-ydpi="96" />
    <use
       x="0"
       y="0"
       xlink:href="#circle4993"
       id="use4997"
       transform="translate(-34.319179,169.47764)"
       width="100%"
       height="100%"
       inkscape:export-xdpi="96"
       inkscape:export-ydpi="96" />
    <use
       x="0"
       y="0"
       inkscape:tiled-clone-of="#circle4987"
       xlink:href="#circle4987"
       id="use5023"
       transform="translate(-89.6054,108.55824)"
       width="100%"
       height="100%"
       inkscape:export-xdpi="96"
       inkscape:export-ydpi="96" />
    <use
       x="0"
       y="0"
       inkscape:tiled-clone-of="#circle4987"
       xlink:href="#circle4987"
       transform="translate(-72.097181,130.31441)"
       id="use5027"
       width="100%"
       height="100%"
       inkscape:export-xdpi="96"
       inkscape:export-ydpi="96" />
    <use
       x="0"
       y="0"
       inkscape:tiled-clone-of="#circle4987"
       xlink:href="#circle4987"
       transform="translate(-53.787873,144.07272)"
       id="use5029"
       width="100%"
       height="100%"
       inkscape:export-xdpi="96"
       inkscape:export-ydpi="96" />
    <use
       x="0"
       y="0"
       inkscape:tiled-clone-of="#circle4987"
       xlink:href="#circle4987"
       transform="translate(-30.716073,152.09367)"
       id="use5031"
       width="100%"
       height="100%"
       inkscape:export-xdpi="96"
       inkscape:export-ydpi="96" />
    <use
       x="0"
       y="0"
       inkscape:tiled-clone-of="#circle4987"
       xlink:href="#circle4987"
       transform="translate(-124.85469,39.297723)"
       id="use5033"
       width="100%"
       height="100%"
       inkscape:export-xdpi="96"
       inkscape:export-ydpi="96" />
    <use
       x="0"
       y="0"
       inkscape:tiled-clone-of="#circle4987"
       xlink:href="#circle4987"
       transform="translate(-108.92664,70.518556)"
       id="use5035"
       width="100%"
       height="100%"
       inkscape:export-xdpi="96"
       inkscape:export-ydpi="96" />
    <use
       x="0"
       y="0"
       xlink:href="#circle4987"
       id="use5049"
       transform="translate(-7.5896178,154.57869)"
       width="100%"
       height="100%"
       inkscape:export-xdpi="96"
       inkscape:export-ydpi="96" />
    <use
       x="0"
       y="0"
       xlink:href="#circle4987"
       id="use5051"
       transform="translate(19.607143,156.20344)"
       width="100%"
       height="100%"
       inkscape:export-xdpi="96"
       inkscape:export-ydpi="96" />
    <g
       id="g5423"
       transform="translate(40.881672,25.504582)"
       inkscape:export-xdpi="96"
       inkscape:export-ydpi="96">
      <rect
         y="38.967144"
         x="79.730537"
         height="21.828245"
         width="42.507641"
         id="rect5406"
         style="opacity:1;fill:#aeaeff;fill-opacity:1;stroke:none;stroke-width:0.52916676;stroke-miterlimit:4;stroke-dasharray:none;stroke-dashoffset:0;stroke-opacity:1;paint-order:stroke fill markers" />
      <text
         xml:space="preserve"
         style="font-style:normal;font-variant:normal;font-weight:normal;font-stretch:normal;font-size:7.21069956px;line-height:1.25;font-family:'Roboto Slab';-inkscape-font-specification:'Roboto Slab';font-variant-ligatures:normal;font-variant-caps:normal;font-variant-numeric:normal;font-feature-settings:normal;text-align:start;letter-spacing:0px;word-spacing:0px;writing-mode:lr-tb;text-anchor:start;fill:#0000c4;fill-opacity:1;stroke:none;stroke-width:0.1802675"
         x="80.419792"
         y="44.262363"
         id="text5400"><tspan
           sodipodi:role="line"
           id="tspan5398"
           x="80.419792"
           y="44.262363"
           style="font-style:normal;font-variant:normal;font-weight:bold;font-stretch:normal;font-size:5.64444447px;font-family:'Roboto Slab';-inkscape-font-specification:'Roboto Slab Bold';fill:#0000c4;fill-opacity:1;stroke-width:0.1802675">Emulators</tspan></text>
      <flowRoot
         transform="translate(1.4935116,5.9740466)"
         id="flowRoot5408"
         style="font-style:normal;font-variant:normal;font-weight:normal;font-stretch:normal;font-size:4.23333311px;line-height:1.25;font-family:'Roboto Slab';-inkscape-font-specification:'Roboto Slab';font-variant-ligatures:normal;font-variant-caps:normal;font-variant-numeric:normal;font-feature-settings:normal;text-align:start;letter-spacing:0px;word-spacing:0px;writing-mode:lr-tb;text-anchor:start;fill:#0000c4;fill-opacity:1;stroke:none;stroke-width:0.1802675"
         xml:space="preserve"><flowRegion
           style="font-size:4.23333311px"
           id="flowRegion5410"><use
             height="100%"
             width="100%"
             id="use5412"
             xlink:href="#rect5406"
             y="0"
             x="0" /></flowRegion><flowPara
           id="flowPara5414"># of observations, degrees of freedom, etc</flowPara></flowRoot>    </g>
    <text
       id="text5622"
       y="183.44028"
       x="170.00829"
       style="font-style:normal;font-variant:normal;font-weight:normal;font-stretch:normal;font-size:7.21069956px;line-height:0.75;font-family:'Roboto Slab';-inkscape-font-specification:'Roboto Slab';font-variant-ligatures:normal;font-variant-caps:normal;font-variant-numeric:normal;font-feature-settings:normal;text-align:start;letter-spacing:0px;word-spacing:0px;writing-mode:lr-tb;text-anchor:start;fill:#000000;fill-opacity:1;stroke:none;stroke-width:0.1802675"
       xml:space="preserve"
       inkscape:export-xdpi="96"
       inkscape:export-ydpi="96"><tspan
         id="tspan5618"
         style="font-style:normal;font-variant:normal;font-weight:bold;font-stretch:normal;font-size:5.64444447px;line-height:0.75;font-family:'Roboto Slab';-inkscape-font-specification:'Roboto Slab Bold';fill:#000000;fill-opacity:1;stroke-width:0.1802675"
         y="183.44028"
         x="170.00829"
         sodipodi:role="line">Computational</tspan><tspan
         id="tspan5620"
         style="font-style:normal;font-variant:normal;font-weight:bold;font-stretch:normal;font-size:5.64444447px;line-height:0.75;font-family:'Roboto Slab';-inkscape-font-specification:'Roboto Slab Bold';fill:#000000;fill-opacity:1;stroke-width:0.1802675"
         y="188.8483"
         x="170.00829"
         sodipodi:role="line">effort</tspan></text>
    <text
       id="text5628"
       y="35.265221"
       x="2.3737717"
       style="font-style:normal;font-variant:normal;font-weight:normal;font-stretch:normal;font-size:7.21069956px;line-height:0.75;font-family:'Roboto Slab';-inkscape-font-specification:'Roboto Slab';font-variant-ligatures:normal;font-variant-caps:normal;font-variant-numeric:normal;font-feature-settings:normal;text-align:start;letter-spacing:0px;word-spacing:0px;writing-mode:lr-tb;text-anchor:start;fill:#000000;fill-opacity:1;stroke:none;stroke-width:0.1802675"
       xml:space="preserve"
       inkscape:export-xdpi="96"
       inkscape:export-ydpi="96"><tspan
         id="tspan5624"
         style="font-style:normal;font-variant:normal;font-weight:bold;font-stretch:normal;font-size:5.64444447px;line-height:0.75;font-family:'Roboto Slab';-inkscape-font-specification:'Roboto Slab Bold';fill:#000000;fill-opacity:1;stroke-width:0.1802675"
         y="35.265221"
         x="2.3737717"
         sodipodi:role="line">Emulation</tspan><tspan
         id="tspan5626"
         style="font-style:normal;font-variant:normal;font-weight:bold;font-stretch:normal;font-size:5.64444447px;line-height:0.75;font-family:'Roboto Slab';-inkscape-font-specification:'Roboto Slab Bold';fill:#000000;fill-opacity:1;stroke-width:0.1802675"
         y="40.673244"
         x="2.3737717"
         sodipodi:role="line">error</tspan></text>
    <text
       id="text5634"
       y="163.02501"
       x="0.7717827"
       style="font-style:normal;font-variant:normal;font-weight:normal;font-stretch:normal;font-size:4.23333311px;line-height:0.75;font-family:'Roboto Slab';-inkscape-font-specification:'Roboto Slab';font-variant-ligatures:normal;font-variant-caps:normal;font-variant-numeric:normal;font-feature-settings:normal;text-align:start;letter-spacing:0px;word-spacing:0px;writing-mode:lr-tb;text-anchor:start;fill:#0000c4;fill-opacity:1;stroke:none;stroke-width:0.1802675"
       xml:space="preserve"
       inkscape:export-xdpi="96"
       inkscape:export-ydpi="96"><tspan
         id="tspan5630"
         style="font-style:normal;font-variant:normal;font-weight:bold;font-stretch:normal;font-size:4.23333311px;line-height:1;font-family:'Roboto Slab';-inkscape-font-specification:'Roboto Slab Bold';fill:#0000c4;fill-opacity:1;stroke-width:0.1802675"
         y="163.02501"
         x="0.7717827"
         sodipodi:role="line">Prior</tspan><tspan
         id="tspan5632"
         style="font-style:normal;font-variant:normal;font-weight:bold;font-stretch:normal;font-size:4.23333311px;line-height:1;font-family:'Roboto Slab';-inkscape-font-specification:'Roboto Slab Bold';fill:#0000c4;fill-opacity:1;stroke-width:0.1802675"
         y="167.25835"
         x="0.7717827"
         sodipodi:role="line">mismatch</tspan></text>
    <text
       xml:space="preserve"
       style="font-style:normal;font-variant:normal;font-weight:normal;font-stretch:normal;font-size:4.23333311px;line-height:1;font-family:'Roboto Slab';-inkscape-font-specification:'Roboto Slab';font-variant-ligatures:normal;font-variant-caps:normal;font-variant-numeric:normal;font-feature-settings:normal;text-align:start;letter-spacing:0px;word-spacing:0px;writing-mode:lr-tb;text-anchor:start;fill:#00a300;fill-opacity:1;stroke:none;stroke-width:0.1802675"
       x="0.74904507"
       y="124.6516"
       id="text5400-7-62"
       inkscape:export-xdpi="96"
       inkscape:export-ydpi="96"><tspan
         sodipodi:role="line"
         x="0.74904507"
         y="124.6516"
         style="font-style:normal;font-variant:normal;font-weight:bold;font-stretch:normal;font-size:4.23333311px;line-height:1;font-family:'Roboto Slab';-inkscape-font-specification:'Roboto Slab Bold';fill:#00a300;fill-opacity:1;stroke-width:0.1802675"
         id="tspan5616">Task error</tspan><tspan
         sodipodi:role="line"
         x="0.74904507"
         y="128.88493"
         style="font-style:normal;font-variant:normal;font-weight:bold;font-stretch:normal;font-size:4.23333311px;line-height:1;font-family:'Roboto Slab';-inkscape-font-specification:'Roboto Slab Bold';fill:#00a300;fill-opacity:1;stroke-width:0.1802675"
         id="tspan5638">tolerance</tspan></text>
    <text
       xml:space="preserve"
       style="font-style:normal;font-variant:normal;font-weight:normal;font-stretch:normal;font-size:4.23333311px;line-height:0.75;font-family:'Roboto Slab';-inkscape-font-specification:'Roboto Slab';font-variant-ligatures:normal;font-variant-caps:normal;font-variant-numeric:normal;font-feature-settings:normal;text-align:start;letter-spacing:0px;word-spacing:0px;writing-mode:lr-tb;text-anchor:start;fill:#000000;fill-opacity:1;stroke:none;stroke-width:0.1802675"
       x="25.488947"
       y="101.89189"
       id="text5665"
       inkscape:export-xdpi="96"
       inkscape:export-ydpi="96"><tspan
         sodipodi:role="line"
         x="25.488947"
         y="101.89189"
         style="font-style:normal;font-variant:normal;font-weight:bold;font-stretch:normal;font-size:4.23333311px;line-height:1;font-family:'Roboto Slab';-inkscape-font-specification:'Roboto Slab Bold';fill:#000000;fill-opacity:1;stroke-width:0.1802675"
         id="tspan5661">Simulator</tspan><tspan
         sodipodi:role="line"
         x="25.488947"
         y="106.12522"
         style="font-style:normal;font-variant:normal;font-weight:bold;font-stretch:normal;font-size:4.23333311px;line-height:1;font-family:'Roboto Slab';-inkscape-font-specification:'Roboto Slab Bold';fill:#000000;fill-opacity:1;stroke-width:0.1802675"
         id="tspan5667">simplification</tspan></text>
    <text
       id="text5634-1"
       y="94.4198"
       x="65.181442"
       style="font-style:normal;font-variant:normal;font-weight:normal;font-stretch:normal;font-size:4.23333311px;line-height:0.75;font-family:'Roboto Slab';-inkscape-font-specification:'Roboto Slab';font-variant-ligatures:normal;font-variant-caps:normal;font-variant-numeric:normal;font-feature-settings:normal;text-align:start;letter-spacing:0px;word-spacing:0px;writing-mode:lr-tb;text-anchor:start;fill:#000000;fill-opacity:1;stroke:none;stroke-width:0.1802675"
       xml:space="preserve"
       inkscape:export-xdpi="96"
       inkscape:export-ydpi="96"><tspan
         id="tspan5630-8"
         style="font-style:normal;font-variant:normal;font-weight:bold;font-stretch:normal;font-size:4.23333311px;line-height:1;font-family:'Roboto Slab';-inkscape-font-specification:'Roboto Slab Bold';fill:#000000;fill-opacity:1;stroke-width:0.1802675"
         y="94.4198"
         x="65.181442"
         sodipodi:role="line">Exact</tspan><tspan
         id="tspan5632-7"
         style="font-style:normal;font-variant:normal;font-weight:bold;font-stretch:normal;font-size:4.23333311px;line-height:1;font-family:'Roboto Slab';-inkscape-font-specification:'Roboto Slab Bold';fill:#000000;fill-opacity:1;stroke-width:0.1802675"
         y="98.65313"
         x="65.181442"
         sodipodi:role="line">prior</tspan></text>
    <path
       inkscape:connector-curvature="0"
       id="path5392"
       d="m 77.136589,125.62054 v 50.67629"
       style="fill:none;stroke:#0000c4;stroke-width:0.26458332;stroke-linecap:butt;stroke-linejoin:miter;stroke-miterlimit:4;stroke-dasharray:none;stroke-dashoffset:0;stroke-opacity:1;marker-start:url(#DotL);marker-end:url(#DotL)"
       inkscape:transform-center-y="-84.16083"
       sodipodi:nodetypes="cc"
       inkscape:export-xdpi="96"
       inkscape:export-ydpi="96" />
    <g
       id="g5908"
       inkscape:export-xdpi="96"
       inkscape:export-ydpi="96">
      <text
         xml:space="preserve"
         style="font-style:normal;font-variant:normal;font-weight:normal;font-stretch:normal;font-size:4.23333311px;line-height:0.75;font-family:'Roboto Slab';-inkscape-font-specification:'Roboto Slab';font-variant-ligatures:normal;font-variant-caps:normal;font-variant-numeric:normal;font-feature-settings:normal;text-align:start;letter-spacing:0px;word-spacing:0px;writing-mode:lr-tb;text-anchor:start;fill:#000000;fill-opacity:1;stroke:none;stroke-width:0.1802675"
         x="49.728649"
         y="141.32231"
         id="text5634-1-9"><tspan
           sodipodi:role="line"
           x="49.728649"
           y="141.32231"
           style="font-style:normal;font-variant:normal;font-weight:bold;font-stretch:normal;font-size:4.23333311px;line-height:1;font-family:'Roboto Slab';-inkscape-font-specification:'Roboto Slab Bold';fill:#000000;fill-opacity:1;stroke-width:0.1802675"
           id="tspan5630-8-2">Optimal</tspan><tspan
           sodipodi:role="line"
           x="49.728649"
           y="145.55565"
           style="font-style:normal;font-variant:normal;font-weight:bold;font-stretch:normal;font-size:4.23333311px;line-height:1;font-family:'Roboto Slab';-inkscape-font-specification:'Roboto Slab Bold';fill:#000000;fill-opacity:1;stroke-width:0.1802675"
           id="tspan5632-7-0">emulator</tspan></text>
      <path
         sodipodi:nodetypes="cc"
         inkscape:connector-curvature="0"
         id="path5902"
         d="M 66.174053,137.07937 77.136587,125.62054"
         style="fill:none;stroke:#000000;stroke-width:0.26458332px;stroke-linecap:butt;stroke-linejoin:miter;stroke-opacity:1" />
    </g>
  </g>
</svg>
