<?xml version="1.0" encoding="UTF-8" standalone="no"?>
<!-- Created with Inkscape (http://www.inkscape.org/) -->

<svg
   xmlns:dc="http://purl.org/dc/elements/1.1/"
   xmlns:cc="http://creativecommons.org/ns#"
   xmlns:rdf="http://www.w3.org/1999/02/22-rdf-syntax-ns#"
   xmlns:svg="http://www.w3.org/2000/svg"
   xmlns="http://www.w3.org/2000/svg"
   xmlns:xlink="http://www.w3.org/1999/xlink"
   xmlns:sodipodi="http://sodipodi.sourceforge.net/DTD/sodipodi-0.dtd"
   xmlns:inkscape="http://www.inkscape.org/namespaces/inkscape"
   inkscape:version="0.92.1 r15371"
   version="1.1"
   id="svg2"
   viewBox="0 0 744.09448819 1052.3622047"
   height="297mm"
   width="210mm"
   sodipodi:docname="network.svg">
  <sodipodi:namedview
     inkscape:window-maximized="1"
     inkscape:window-y="24"
     inkscape:window-x="55"
     inkscape:window-height="1056"
     inkscape:window-width="1865"
     showgrid="false"
     inkscape:current-layer="layer3"
     inkscape:document-units="px"
     inkscape:cy="789.90537"
     inkscape:cx="340.53019"
     inkscape:zoom="1.4"
     inkscape:pageshadow="2"
     inkscape:pageopacity="0.0"
     borderopacity="1.0"
     bordercolor="#666666"
     pagecolor="#ffffff"
     id="base" />
  <defs
     id="defs4">
    <marker
       inkscape:stockid="DotM"
       orient="auto"
       refY="0.0"
       refX="0.0"
       id="marker4506"
       style="overflow:visible"
       inkscape:isstock="true">
      <path
         id="path4314"
         d="M -2.5,-1.0 C -2.5,1.7600000 -4.7400000,4.0 -7.5,4.0 C -10.260000,4.0 -12.5,1.7600000 -12.5,-1.0 C -12.5,-3.7600000 -10.260000,-6.0 -7.5,-6.0 C -4.7400000,-6.0 -2.5,-3.7600000 -2.5,-1.0 z "
         style="fill-rule:evenodd;stroke:#ff8080;stroke-width:1pt;stroke-opacity:1;fill:#ff8080;fill-opacity:1"
         transform="scale(0.4) translate(7.4, 1)" />
    </marker>
    <marker
       inkscape:stockid="DotM"
       orient="auto"
       refY="0.0"
       refX="0.0"
       id="marker7000"
       style="overflow:visible"
       inkscape:isstock="true">
      <path
         id="path7002"
         d="M -2.5,-1.0 C -2.5,1.7600000 -4.7400000,4.0 -7.5,4.0 C -10.260000,4.0 -12.5,1.7600000 -12.5,-1.0 C -12.5,-3.7600000 -10.260000,-6.0 -7.5,-6.0 C -4.7400000,-6.0 -2.5,-3.7600000 -2.5,-1.0 z "
         style="fill-rule:evenodd;stroke:#000000;stroke-width:1pt;stroke-opacity:1;fill:#000000;fill-opacity:1"
         transform="scale(0.4) translate(7.4, 1)" />
    </marker>
    <marker
       inkscape:stockid="DotM"
       orient="auto"
       refY="0.0"
       refX="0.0"
       id="DotM"
       style="overflow:visible"
       inkscape:isstock="true">
      <path
         id="path6566"
         d="M -2.5,-1.0 C -2.5,1.7600000 -4.7400000,4.0 -7.5,4.0 C -10.260000,4.0 -12.5,1.7600000 -12.5,-1.0 C -12.5,-3.7600000 -10.260000,-6.0 -7.5,-6.0 C -4.7400000,-6.0 -2.5,-3.7600000 -2.5,-1.0 z "
         style="fill-rule:evenodd;stroke:#000000;stroke-width:1pt;stroke-opacity:1;fill:#000000;fill-opacity:1"
         transform="scale(0.4) translate(7.4, 1)" />
    </marker>
    <marker
       inkscape:stockid="DotS"
       orient="auto"
       refY="0.0"
       refX="0.0"
       id="DotS"
       style="overflow:visible"
       inkscape:isstock="true">
      <path
         id="path6569"
         d="M -2.5,-1.0 C -2.5,1.7600000 -4.7400000,4.0 -7.5,4.0 C -10.260000,4.0 -12.5,1.7600000 -12.5,-1.0 C -12.5,-3.7600000 -10.260000,-6.0 -7.5,-6.0 C -4.7400000,-6.0 -2.5,-3.7600000 -2.5,-1.0 z "
         style="fill-rule:evenodd;stroke:#000000;stroke-width:1pt;stroke-opacity:1;fill:#000000;fill-opacity:1"
         transform="scale(0.2) translate(7.4, 1)" />
    </marker>
    <marker
       inkscape:isstock="true"
       style="overflow:visible;"
       id="Arrow1Mend"
       refX="0.0"
       refY="0.0"
       orient="auto"
       inkscape:stockid="Arrow1Mend">
      <path
         transform="scale(0.4) rotate(180) translate(10,0)"
         style="fill-rule:evenodd;stroke:#000000;stroke-width:1pt;stroke-opacity:1;fill:#000000;fill-opacity:1"
         d="M 0.0,0.0 L 5.0,-5.0 L -12.5,0.0 L 5.0,5.0 L 0.0,0.0 z "
         id="path5804" />
    </marker>
    <marker
       inkscape:isstock="true"
       style="overflow:visible;"
       id="Arrow1Lend"
       refX="0.0"
       refY="0.0"
       orient="auto"
       inkscape:stockid="Arrow1Lend">
      <path
         transform="scale(0.8) rotate(180) translate(12.5,0)"
         style="fill-rule:evenodd;stroke:#000000;stroke-width:1pt;stroke-opacity:1;fill:#000000;fill-opacity:1"
         d="M 0.0,0.0 L 5.0,-5.0 L -12.5,0.0 L 5.0,5.0 L 0.0,0.0 z "
         id="path5798" />
    </marker>
    <pattern
       patternTransform="matrix(4.3322191,5.8517958,-7.1860058,6.1344126,17.211004,-3.5714285)"
       id="pattern5735"
       xlink:href="#Strips1_1"
       inkscape:collect="always" />
    <pattern
       inkscape:collect="always"
       patternUnits="userSpaceOnUse"
       width="2"
       height="1"
       patternTransform="translate(0,0) scale(10,10)"
       id="Strips1_1"
       inkscape:stockid="Stripes 1:1">
      <rect
         style="fill:black;stroke:none"
         x="0"
         y="-0.5"
         width="1"
         height="2"
         id="rect5020" />
    </pattern>
    <clipPath
       id="clipPath4257"
       clipPathUnits="userSpaceOnUse">
      <ellipse
         transform="matrix(1,0,0.64413574,0.7649112,0,0)"
         style="color:#157545;display:inline;overflow:visible;visibility:visible;opacity:1;fill:none;fill-opacity:1;fill-rule:evenodd;stroke:#000000;stroke-width:3.43017077;stroke-linecap:round;stroke-linejoin:round;stroke-miterlimit:4;stroke-dasharray:none;stroke-dashoffset:0;stroke-opacity:1;marker:none;enable-background:accumulate"
         id="ellipse4259"
         cx="-5.3935595"
         cy="221.41901"
         rx="114.98199"
         ry="40.889027" />
    </clipPath>
    <pattern
       patternTransform="matrix(4.3322191,5.8517958,-7.1860058,6.1344126,17.211004,-3.5714285)"
       id="pattern5735-5"
       xlink:href="#Strips1_1-6"
       inkscape:collect="always" />
    <pattern
       inkscape:collect="always"
       patternUnits="userSpaceOnUse"
       width="2"
       height="1"
       patternTransform="translate(0,0) scale(10,10)"
       id="Strips1_1-6"
       inkscape:stockid="Stripes 1:1">
      <rect
         style="fill:black;stroke:none"
         x="0"
         y="-0.5"
         width="1"
         height="2"
         id="rect5020-2" />
    </pattern>
    <marker
       inkscape:isstock="true"
       style="overflow:visible"
       id="Arrow1Mend-9"
       refX="0"
       refY="0"
       orient="auto"
       inkscape:stockid="Arrow1Mend">
      <path
         inkscape:connector-curvature="0"
         transform="matrix(-0.4,0,0,-0.4,-4,0)"
         style="fill:#000000;fill-opacity:1;fill-rule:evenodd;stroke:#000000;stroke-width:1pt;stroke-opacity:1"
         d="M 0,0 5,-5 -12.5,0 5,5 0,0 Z"
         id="path5804-1" />
    </marker>
    <pattern
       patternTransform="matrix(4.3322191,5.8517958,-7.1860058,6.1344126,17.211004,-3.5714285)"
       id="pattern5735-5-3"
       xlink:href="#Strips1_1-6-6"
       inkscape:collect="always" />
    <pattern
       inkscape:collect="always"
       patternUnits="userSpaceOnUse"
       width="2"
       height="1"
       patternTransform="translate(0,0) scale(10,10)"
       id="Strips1_1-6-6"
       inkscape:stockid="Stripes 1:1">
      <rect
         style="fill:black;stroke:none"
         x="0"
         y="-0.5"
         width="1"
         height="2"
         id="rect5020-2-7" />
    </pattern>
    <marker
       inkscape:isstock="true"
       style="overflow:visible"
       id="Arrow1Mend-9-5"
       refX="0"
       refY="0"
       orient="auto"
       inkscape:stockid="Arrow1Mend">
      <path
         inkscape:connector-curvature="0"
         transform="matrix(-0.4,0,0,-0.4,-4,0)"
         style="fill:#000000;fill-opacity:1;fill-rule:evenodd;stroke:#000000;stroke-width:1pt;stroke-opacity:1"
         d="M 0,0 5,-5 -12.5,0 5,5 0,0 Z"
         id="path5804-1-3" />
    </marker>
  </defs>
  <metadata
     id="metadata7">
    <rdf:RDF>
      <cc:Work
         rdf:about="">
        <dc:format>image/svg+xml</dc:format>
        <dc:type
           rdf:resource="http://purl.org/dc/dcmitype/StillImage" />
        <dc:title></dc:title>
      </cc:Work>
    </rdf:RDF>
  </metadata>
  <g
     inkscape:label="Layer 1"
     inkscape:groupmode="layer"
     id="layer1"
     style="display:inline">
    <path
       d="m 298.64471,405.08298 0,-45.45176 43.27198,-31.03177 76.60444,-64.27876 56.18648,-40.02405 m -56.18648,40.02405 -0.16458,-68.40743 m -76.43986,77.1329 -32.1603,-91.64094 m -11.11168,178.226 -23.06893,-107.80336 0,-100 15.99786,-81.539411 m -15.99786,81.539411 -27.10953,-6.78813 M 275.57578,251.82786 219.40375,235.10335 198.97134,187.5491 183.98363,97.928469 m 14.98771,89.620631 -55.17633,8.46328 m 198.12168,132.58707 0,-55.55329 42.26182,-90.63078 14.83175,-48.28186"
       style="fill:none;fill-opacity:1;stroke:#000000;stroke-width:2;stroke-linecap:butt;stroke-linejoin:miter;stroke-miterlimit:4;stroke-dasharray:none;stroke-opacity:1;marker-mid:url(#marker7000);marker-end:url(#DotM)"
       id="path6213"
       inkscape:connector-curvature="0"
       sodipodi:nodetypes="ccccccccccccccccccccccccc" />
    <g
       id="layer1-3"
       inkscape:label="Layer 1"
       transform="matrix(0.38394694,0,0,0.38394694,120.45791,34.671335)">
      <g
         inkscape:transform-center-y="-53.571429"
         inkscape:transform-center-x="-3.5714286"
         transform="translate(32.142857,4.2857143)"
         id="g5751">
        <g
           transform="translate(-180,-75.714286)"
           id="g6175">
          <g
             id="g5771"
             transform="matrix(0.40885213,0,0,0.40885213,143.20009,92.336196)">
            <path
               transform="translate(-32.142857,-4.2857143)"
               sodipodi:nodetypes="cccccc"
               inkscape:connector-curvature="0"
               id="rect4243"
               d="m 330.21429,100.93363 21.42857,51.07143 0,121.66678 c -63.95964,21.4494 -126.59124,21.65025 -187.85715,0 l 0,-121.66678 L 189.5,100.93363"
               style="color:#157545;display:inline;overflow:visible;visibility:visible;opacity:1;fill:#ffffff;fill-opacity:1;fill-rule:evenodd;stroke:#000000;stroke-width:3;stroke-linecap:round;stroke-linejoin:round;stroke-miterlimit:4;stroke-dasharray:none;stroke-dashoffset:0;stroke-opacity:1;marker:none;enable-background:accumulate" />
            <ellipse
               transform="translate(-32.142857,-4.2857143)"
               ry="22.223354"
               rx="67.73098"
               cy="101.26767"
               cx="260.03049"
               id="path4283"
               style="color:#157545;display:inline;overflow:visible;visibility:visible;opacity:1;fill:url(#pattern5735);fill-opacity:1;fill-rule:evenodd;stroke:none;stroke-width:3;stroke-linecap:round;stroke-linejoin:round;stroke-miterlimit:4;stroke-dasharray:none;stroke-dashoffset:0;stroke-opacity:1;marker:none;enable-background:accumulate" />
            <path
               transform="translate(-32.142857,-4.2857143)"
               sodipodi:nodetypes="cccc"
               inkscape:connector-curvature="0"
               id="path4136"
               d="m 85.888324,100.51521 97.612036,0 m 152.92893,0 90.8876,0"
               style="fill:none;fill-rule:evenodd;stroke:#000000;stroke-width:3;stroke-linecap:butt;stroke-linejoin:miter;stroke-miterlimit:4;stroke-dasharray:none;stroke-opacity:1" />
            <g
               transform="matrix(0.97412361,0.22601592,-0.22601592,0.97412361,14.749609,-69.627647)"
               inkscape:transform-center-y="8.9932296"
               inkscape:transform-center-x="-40.634431"
               id="g4278">
              <path
                 style="color:#157545;display:inline;overflow:visible;visibility:visible;opacity:1;fill:#ffffff;fill-opacity:1;fill-rule:evenodd;stroke:#000000;stroke-width:3;stroke-linecap:round;stroke-linejoin:round;stroke-miterlimit:4;stroke-dasharray:none;stroke-dashoffset:0;stroke-opacity:1;marker:none;enable-background:accumulate"
                 d="m 340,212.3622 87.14285,0 0,27.14285 -87.14285,0 c 0,0 -17.67767,1.21291 -17.67767,-13.57143 C 322.32233,211.14929 340,212.3622 340,212.3622 Z"
                 id="rect4261"
                 inkscape:connector-curvature="0"
                 sodipodi:nodetypes="cccczc"
                 inkscape:transform-center-x="-41.416254"
                 inkscape:transform-center-y="2.5253814" />
              <ellipse
                 ry="13.535777"
                 rx="8.586297"
                 cy="225.9095"
                 cx="426.78946"
                 id="ellipse4266"
                 style="color:#157545;display:inline;overflow:visible;visibility:visible;opacity:1;fill:#ffffff;fill-opacity:1;fill-rule:evenodd;stroke:#000000;stroke-width:3;stroke-linecap:round;stroke-linejoin:round;stroke-miterlimit:4;stroke-dasharray:none;stroke-dashoffset:0;stroke-opacity:1;marker:none;enable-background:accumulate" />
              <ellipse
                 style="color:#157545;display:inline;overflow:visible;visibility:visible;opacity:1;fill:#000000;fill-opacity:1;fill-rule:evenodd;stroke:none;stroke-width:3;stroke-linecap:round;stroke-linejoin:round;stroke-miterlimit:4;stroke-dasharray:none;stroke-dashoffset:0;stroke-opacity:1;marker:none;enable-background:accumulate"
                 id="path4264"
                 cx="426.78946"
                 cy="225.55235"
                 rx="5.9998522"
                 ry="9.8617325" />
            </g>
            <path
               style="fill:none;fill-rule:evenodd;stroke:#000000;stroke-width:2;stroke-linecap:round;stroke-linejoin:miter;stroke-miterlimit:4;stroke-dasharray:none;stroke-opacity:1"
               d="m 264.69438,5.8977377 0,37.1586243 m 0,3.595271 0,7.46039"
               id="path5737"
               inkscape:connector-curvature="0"
               sodipodi:nodetypes="cccc" />
            <use
               x="0"
               y="0"
               xlink:href="#path5737"
               id="use5739"
               transform="translate(-76.645334,6.0609154)"
               width="100%"
               height="100%" />
            <use
               x="0"
               y="0"
               xlink:href="#path5737"
               id="use5741"
               transform="translate(13.510792,8.0812203)"
               width="100%"
               height="100%" />
            <use
               x="0"
               y="0"
               xlink:href="#path5737"
               id="use5743"
               transform="translate(-16.036173,12.626907)"
               width="100%"
               height="100%" />
            <use
               x="0"
               y="0"
               xlink:href="#path5737"
               id="use5745"
               transform="translate(-31.567271,4.0406102)"
               width="100%"
               height="100%" />
            <use
               x="0"
               y="0"
               xlink:href="#path5737"
               id="use5747"
               transform="translate(-47.098368,-6.0609152)"
               width="100%"
               height="100%" />
            <use
               x="0"
               y="0"
               xlink:href="#path5737"
               id="use5749"
               transform="translate(-63.134542,-2.0203052)"
               width="100%"
               height="100%" />
            <use
               height="100%"
               width="100%"
               transform="translate(27.526661,3.5355342)"
               id="use5760"
               xlink:href="#path5737"
               y="0"
               x="0" />
            <use
               height="100%"
               width="100%"
               transform="translate(-93.691661,7.5761438)"
               id="use5762"
               xlink:href="#path5737"
               y="0"
               x="0" />
          </g>
          <path
             style="fill:none;fill-rule:evenodd;stroke:#000000;stroke-width:1.63540852;stroke-linecap:butt;stroke-linejoin:miter;stroke-miterlimit:4;stroke-dasharray:none;stroke-opacity:1;marker-end:url(#Arrow1Mend)"
             d="m 303.82057,192.59465 11.38945,0 0,24.82317"
             id="path5789"
             inkscape:connector-curvature="0" />
        </g>
      </g>
    </g>
    <use
       x="0"
       y="0"
       xlink:href="#layer1-3"
       id="use6393"
       transform="matrix(-1,0,0,1,659.87473,126.98335)"
       width="100%"
       height="100%" />
    <use
       x="0"
       y="0"
       xlink:href="#layer1-3"
       id="use6395"
       transform="translate(107.37203,-28.284272)"
       width="100%"
       height="100%" />
    <use
       x="0"
       y="0"
       xlink:href="#layer1-3"
       id="use6397"
       transform="translate(-40.528654,98.403217)"
       width="100%"
       height="100%" />
    <use
       x="0"
       y="0"
       xlink:href="#layer1-3"
       id="use6399"
       transform="translate(64.649763,47.477169)"
       width="100%"
       height="100%" />
    <use
       x="0"
       y="0"
       xlink:href="#layer1-3"
       id="use6401"
       transform="matrix(-1,0,0,1,495.21986,81.822356)"
       width="100%"
       height="100%" />
    <use
       x="0"
       y="0"
       xlink:href="#layer1-3"
       id="use6403"
       transform="matrix(-1,0,0,1,584.70502,37.498196)"
       width="100%"
       height="100%" />
    <use
       x="0"
       y="0"
       xlink:href="#layer1-3"
       id="use6405"
       transform="matrix(-1,0,0,1,602.88776,98.944187)"
       width="100%"
       height="100%" />
  </g>
  <g
     inkscape:groupmode="layer"
     id="layer2"
     inkscape:label="Layer 2"
     style="display:inline">
    <g
       id="layer1-3-2"
       inkscape:label="Layer 1"
       transform="matrix(-0.31906807,0,0,0.31906807,273.81897,181.49604)">
      <g
         inkscape:transform-center-y="-53.571429"
         inkscape:transform-center-x="-3.5714286"
         transform="translate(32.142857,4.2857143)"
         id="g5751-7">
        <g
           transform="translate(-180,-75.714286)"
           id="g6175-0">
          <g
             id="g5771-9"
             transform="matrix(0.40885213,0,0,0.40885213,143.20009,92.336196)">
            <path
               transform="translate(-32.142857,-4.2857143)"
               sodipodi:nodetypes="cccccc"
               inkscape:connector-curvature="0"
               id="rect4243-3"
               d="m 330.21429,100.93363 21.42857,51.07143 0,121.66678 c -63.95964,21.4494 -126.59124,21.65025 -187.85715,0 l 0,-121.66678 L 189.5,100.93363"
               style="color:#157545;display:inline;overflow:visible;visibility:visible;opacity:1;fill:#ffaaaa;fill-opacity:1;fill-rule:evenodd;stroke:#000000;stroke-width:3;stroke-linecap:round;stroke-linejoin:round;stroke-miterlimit:4;stroke-dasharray:none;stroke-dashoffset:0;stroke-opacity:1;marker:none;enable-background:accumulate" />
            <ellipse
               transform="translate(-32.142857,-4.2857143)"
               ry="22.223354"
               rx="67.73098"
               cy="101.26767"
               cx="260.03049"
               id="path4283-6"
               style="color:#157545;display:inline;overflow:visible;visibility:visible;opacity:1;fill:url(#pattern5735-5);fill-opacity:1;fill-rule:evenodd;stroke:none;stroke-width:3;stroke-linecap:round;stroke-linejoin:round;stroke-miterlimit:4;stroke-dasharray:none;stroke-dashoffset:0;stroke-opacity:1;marker:none;enable-background:accumulate" />
            <path
               transform="translate(-32.142857,-4.2857143)"
               sodipodi:nodetypes="cccc"
               inkscape:connector-curvature="0"
               id="path4136-0"
               d="m 85.888324,100.51521 97.612036,0 m 152.92893,0 90.8876,0"
               style="fill:none;fill-rule:evenodd;stroke:#000000;stroke-width:3;stroke-linecap:butt;stroke-linejoin:miter;stroke-miterlimit:4;stroke-dasharray:none;stroke-opacity:1" />
            <g
               transform="matrix(0.97412361,0.22601592,-0.22601592,0.97412361,14.749609,-69.627647)"
               inkscape:transform-center-y="8.9932296"
               inkscape:transform-center-x="-40.634431"
               id="g4278-6">
              <path
                 style="color:#157545;display:inline;overflow:visible;visibility:visible;opacity:1;fill:#ffaaaa;fill-opacity:1;fill-rule:evenodd;stroke:#000000;stroke-width:3;stroke-linecap:round;stroke-linejoin:round;stroke-miterlimit:4;stroke-dasharray:none;stroke-dashoffset:0;stroke-opacity:1;marker:none;enable-background:accumulate"
                 d="m 340,212.3622 87.14285,0 0,27.14285 -87.14285,0 c 0,0 -17.67767,1.21291 -17.67767,-13.57143 C 322.32233,211.14929 340,212.3622 340,212.3622 Z"
                 id="rect4261-2"
                 inkscape:connector-curvature="0"
                 sodipodi:nodetypes="cccczc"
                 inkscape:transform-center-x="-41.416254"
                 inkscape:transform-center-y="2.5253814" />
              <ellipse
                 ry="13.535777"
                 rx="8.586297"
                 cy="225.9095"
                 cx="426.78946"
                 id="ellipse4266-6"
                 style="color:#157545;display:inline;overflow:visible;visibility:visible;opacity:1;fill:#ffffff;fill-opacity:1;fill-rule:evenodd;stroke:#000000;stroke-width:3;stroke-linecap:round;stroke-linejoin:round;stroke-miterlimit:4;stroke-dasharray:none;stroke-dashoffset:0;stroke-opacity:1;marker:none;enable-background:accumulate" />
              <ellipse
                 style="color:#157545;display:inline;overflow:visible;visibility:visible;opacity:1;fill:#000000;fill-opacity:1;fill-rule:evenodd;stroke:none;stroke-width:3;stroke-linecap:round;stroke-linejoin:round;stroke-miterlimit:4;stroke-dasharray:none;stroke-dashoffset:0;stroke-opacity:1;marker:none;enable-background:accumulate"
                 id="path4264-1"
                 cx="426.78946"
                 cy="225.55235"
                 rx="5.9998522"
                 ry="9.8617325" />
            </g>
            <path
               style="fill:none;fill-rule:evenodd;stroke:#000000;stroke-width:2;stroke-linecap:round;stroke-linejoin:miter;stroke-miterlimit:4;stroke-dasharray:none;stroke-opacity:1"
               d="m 264.69438,5.8977377 0,37.1586243 m 0,3.595271 0,7.46039"
               id="path5737-8"
               inkscape:connector-curvature="0"
               sodipodi:nodetypes="cccc" />
            <use
               x="0"
               y="0"
               xlink:href="#path5737-8"
               id="use5739-7"
               transform="translate(-76.645334,6.0609154)"
               width="100%"
               height="100%" />
            <use
               x="0"
               y="0"
               xlink:href="#path5737-8"
               id="use5741-9"
               transform="translate(13.510792,8.0812203)"
               width="100%"
               height="100%" />
            <use
               x="0"
               y="0"
               xlink:href="#path5737-8"
               id="use5743-2"
               transform="translate(-16.036173,12.626907)"
               width="100%"
               height="100%" />
            <use
               x="0"
               y="0"
               xlink:href="#path5737-8"
               id="use5745-0"
               transform="translate(-31.567271,4.0406102)"
               width="100%"
               height="100%" />
            <use
               x="0"
               y="0"
               xlink:href="#path5737-8"
               id="use5747-2"
               transform="translate(-47.098368,-6.0609152)"
               width="100%"
               height="100%" />
            <use
               x="0"
               y="0"
               xlink:href="#path5737-8"
               id="use5749-3"
               transform="translate(-63.134542,-2.0203052)"
               width="100%"
               height="100%" />
            <use
               height="100%"
               width="100%"
               transform="translate(27.526661,3.5355342)"
               id="use5760-7"
               xlink:href="#path5737-8"
               y="0"
               x="0" />
            <use
               height="100%"
               width="100%"
               transform="translate(-93.691661,7.5761438)"
               id="use5762-5"
               xlink:href="#path5737-8"
               y="0"
               x="0" />
          </g>
          <path
             style="fill:none;fill-rule:evenodd;stroke:#000000;stroke-width:1.63540852;stroke-linecap:butt;stroke-linejoin:miter;stroke-miterlimit:4;stroke-dasharray:none;stroke-opacity:1;marker-end:url(#Arrow1Mend-9)"
             d="m 303.82057,192.59465 11.38945,0 0,24.82317"
             id="path5789-9"
             inkscape:connector-curvature="0" />
        </g>
      </g>
    </g>
  </g>
  <g
     inkscape:groupmode="layer"
     id="layer3"
     inkscape:label="Layer 3"
     style="display:inline">
    <path
       style="fill:none;fill-rule:evenodd;stroke:#ff8080;stroke-width:2;stroke-linecap:butt;stroke-linejoin:miter;stroke-miterlimit:4;stroke-dasharray:none;stroke-opacity:1;marker-end:url(#marker4506)"
       d="m 216.25525,237.53552 -41.42857,21.42857"
       id="path4244"
       inkscape:connector-curvature="0" />
    <g
       style="display:inline"
       id="layer1-3-2-5"
       inkscape:label="Layer 1"
       transform="matrix(0.31906807,0,0,0.31906807,121.31378,206.02923)">
      <g
         inkscape:transform-center-y="-53.571429"
         inkscape:transform-center-x="-3.5714286"
         transform="translate(32.142857,4.2857143)"
         id="g5751-7-6">
        <g
           transform="translate(-180,-75.714286)"
           id="g6175-0-2">
          <g
             id="g5771-9-9"
             transform="matrix(0.40885213,0,0,0.40885213,143.20009,92.336196)">
            <path
               transform="translate(-32.142857,-4.2857143)"
               sodipodi:nodetypes="cccccc"
               inkscape:connector-curvature="0"
               id="rect4243-3-1"
               d="m 330.21429,100.93363 21.42857,51.07143 0,121.66678 c -63.95964,21.4494 -126.59124,21.65025 -187.85715,0 l 0,-121.66678 L 189.5,100.93363"
               style="color:#157545;display:inline;overflow:visible;visibility:visible;opacity:1;fill:#ffaaaa;fill-opacity:1;fill-rule:evenodd;stroke:#000000;stroke-width:3;stroke-linecap:round;stroke-linejoin:round;stroke-miterlimit:4;stroke-dasharray:none;stroke-dashoffset:0;stroke-opacity:1;marker:none;enable-background:accumulate" />
            <ellipse
               transform="translate(-32.142857,-4.2857143)"
               ry="22.223354"
               rx="67.73098"
               cy="101.26767"
               cx="260.03049"
               id="path4283-6-2"
               style="color:#157545;display:inline;overflow:visible;visibility:visible;opacity:1;fill:url(#pattern5735-5-3);fill-opacity:1;fill-rule:evenodd;stroke:none;stroke-width:3;stroke-linecap:round;stroke-linejoin:round;stroke-miterlimit:4;stroke-dasharray:none;stroke-dashoffset:0;stroke-opacity:1;marker:none;enable-background:accumulate" />
            <path
               transform="translate(-32.142857,-4.2857143)"
               sodipodi:nodetypes="cccc"
               inkscape:connector-curvature="0"
               id="path4136-0-7"
               d="m 85.888324,100.51521 97.612036,0 m 152.92893,0 90.8876,0"
               style="fill:none;fill-rule:evenodd;stroke:#000000;stroke-width:3;stroke-linecap:butt;stroke-linejoin:miter;stroke-miterlimit:4;stroke-dasharray:none;stroke-opacity:1" />
            <g
               transform="matrix(0.97412361,0.22601592,-0.22601592,0.97412361,14.749609,-69.627647)"
               inkscape:transform-center-y="8.9932296"
               inkscape:transform-center-x="-40.634431"
               id="g4278-6-0">
              <path
                 style="color:#157545;display:inline;overflow:visible;visibility:visible;opacity:1;fill:#ffaaaa;fill-opacity:1;fill-rule:evenodd;stroke:#000000;stroke-width:3;stroke-linecap:round;stroke-linejoin:round;stroke-miterlimit:4;stroke-dasharray:none;stroke-dashoffset:0;stroke-opacity:1;marker:none;enable-background:accumulate"
                 d="m 340,212.3622 87.14285,0 0,27.14285 -87.14285,0 c 0,0 -17.67767,1.21291 -17.67767,-13.57143 C 322.32233,211.14929 340,212.3622 340,212.3622 Z"
                 id="rect4261-2-9"
                 inkscape:connector-curvature="0"
                 sodipodi:nodetypes="cccczc"
                 inkscape:transform-center-x="-41.416254"
                 inkscape:transform-center-y="2.5253814" />
              <ellipse
                 ry="13.535777"
                 rx="8.586297"
                 cy="225.9095"
                 cx="426.78946"
                 id="ellipse4266-6-3"
                 style="color:#157545;display:inline;overflow:visible;visibility:visible;opacity:1;fill:#ffffff;fill-opacity:1;fill-rule:evenodd;stroke:#000000;stroke-width:3;stroke-linecap:round;stroke-linejoin:round;stroke-miterlimit:4;stroke-dasharray:none;stroke-dashoffset:0;stroke-opacity:1;marker:none;enable-background:accumulate" />
              <ellipse
                 style="color:#157545;display:inline;overflow:visible;visibility:visible;opacity:1;fill:#000000;fill-opacity:1;fill-rule:evenodd;stroke:none;stroke-width:3;stroke-linecap:round;stroke-linejoin:round;stroke-miterlimit:4;stroke-dasharray:none;stroke-dashoffset:0;stroke-opacity:1;marker:none;enable-background:accumulate"
                 id="path4264-1-6"
                 cx="426.78946"
                 cy="225.55235"
                 rx="5.9998522"
                 ry="9.8617325" />
            </g>
            <path
               style="fill:none;fill-rule:evenodd;stroke:#000000;stroke-width:2;stroke-linecap:round;stroke-linejoin:miter;stroke-miterlimit:4;stroke-dasharray:none;stroke-opacity:1"
               d="m 264.69438,5.8977377 0,37.1586243 m 0,3.595271 0,7.46039"
               id="path5737-8-0"
               inkscape:connector-curvature="0"
               sodipodi:nodetypes="cccc" />
            <use
               x="0"
               y="0"
               xlink:href="#path5737-8-0"
               id="use5739-7-6"
               transform="translate(-76.645334,6.0609154)"
               width="100%"
               height="100%" />
            <use
               x="0"
               y="0"
               xlink:href="#path5737-8-0"
               id="use5741-9-2"
               transform="translate(13.510792,8.0812203)"
               width="100%"
               height="100%" />
            <use
               x="0"
               y="0"
               xlink:href="#path5737-8-0"
               id="use5743-2-6"
               transform="translate(-16.036173,12.626907)"
               width="100%"
               height="100%" />
            <use
               x="0"
               y="0"
               xlink:href="#path5737-8-0"
               id="use5745-0-1"
               transform="translate(-31.567271,4.0406102)"
               width="100%"
               height="100%" />
            <use
               x="0"
               y="0"
               xlink:href="#path5737-8-0"
               id="use5747-2-8"
               transform="translate(-47.098368,-6.0609152)"
               width="100%"
               height="100%" />
            <use
               x="0"
               y="0"
               xlink:href="#path5737-8-0"
               id="use5749-3-7"
               transform="translate(-63.134542,-2.0203052)"
               width="100%"
               height="100%" />
            <use
               height="100%"
               width="100%"
               transform="translate(27.526661,3.5355342)"
               id="use5760-7-9"
               xlink:href="#path5737-8-0"
               y="0"
               x="0" />
            <use
               height="100%"
               width="100%"
               transform="translate(-93.691661,7.5761438)"
               id="use5762-5-2"
               xlink:href="#path5737-8-0"
               y="0"
               x="0" />
          </g>
          <path
             style="fill:none;fill-rule:evenodd;stroke:#000000;stroke-width:1.63540852;stroke-linecap:butt;stroke-linejoin:miter;stroke-miterlimit:4;stroke-dasharray:none;stroke-opacity:1;marker-end:url(#Arrow1Mend-9-5)"
             d="m 303.82057,192.59465 11.38945,0 0,24.82317"
             id="path5789-9-0"
             inkscape:connector-curvature="0" />
        </g>
      </g>
    </g>
  </g>
</svg>
